module unorderedchain

go 1.16

require (
	github.com/fsnotify/fsnotify v1.4.9 // indirect
	github.com/golang/protobuf v1.5.2
	github.com/golang/snappy v0.0.3 // indirect
	github.com/google/uuid v1.2.0
	github.com/magiconair/properties v1.8.5 // indirect
	github.com/mattn/go-sqlite3 v1.14.16 // indirect
	github.com/mitchellh/mapstructure v1.4.1 // indirect
	github.com/montanaflynn/stats v0.6.6
	github.com/mroth/weightedrand v0.4.1
	github.com/pelletier/go-toml v1.9.0 // indirect
	github.com/pkg/profile v1.6.0
	github.com/spf13/afero v1.6.0 // indirect
	github.com/spf13/cast v1.3.1 // indirect
	github.com/spf13/jwalterweatherman v1.1.0 // indirect
	github.com/spf13/pflag v1.0.5 // indirect
	github.com/spf13/viper v1.7.1
	github.com/syndtr/goleveldb v1.0.0
	golang.org/x/text v0.3.6 // indirect
	google.golang.org/genproto v0.0.0-20210608205507-b6d2f5bf0d7d // indirect
	google.golang.org/grpc v1.38.0
	google.golang.org/protobuf v1.27.1
	gopkg.in/ini.v1 v1.62.0 // indirect
	gopkg.in/yaml.v2 v2.4.0 // indirect
	gorm.io/driver/sqlite v1.4.4
	gorm.io/gorm v1.24.6
)
